%YAML 1.1
%TAG !u! tag:unity3d.com,2011:
--- !u!114 &11400000
MonoBehaviour:
  m_ObjectHideFlags: 0
  m_PrefabParentObject: {fileID: 0}
  m_PrefabInternal: {fileID: 0}
  m_GameObject: {fileID: 0}
  m_Enabled: 1
  m_EditorHideFlags: 0
  m_Script: {fileID: 11500000, guid: 2934b4ee5bcb95542baa164c133eff72, type: 3}
  m_Name: DefaultHumanVsAI
  m_EditorClassIdentifier: 
  m_PlayerColors:
  - playerSide: 0
    color: {r: 0.07352942, g: 0.07352942, b: 0.07352942, a: 1}
  - playerSide: 1
    color: {r: 0.9558824, g: 0.9558824, b: 0.9558824, a: 1}
  m_Players:
  - {fileID: 11400000, guid: 42dee025f4c4e1743b01a9b1f482719e, type: 2}
  - {fileID: 11400000, guid: f45978f4ca1e7ad4a892a4e291a1cbd9, type: 2}
  m_FirstPlayer: 2
  m_BoardInitialState: {fileID: 11400000, guid: 6bf36dcd09bdfe54fb213a6e7ad3e171,
    type: 2}
